{
  "project_info": {
    "project_number": "711292607581",
    "firebase_url": "https://common-purse-e4b98.firebaseio.com",
    "project_id": "common-purse-e4b98",
    "storage_bucket": "common-purse-e4b98.appspot.com"
  },
  "client": [
    {
      "client_info": {
        "mobilesdk_app_id": "1:711292607581:android:11c8a00258f48b2f",
        "android_client_info": {
          "package_name": "com.example.robbe.commonpurse"
        }
      },
      "oauth_client": [
        {
          "client_id": "711292607581-j780naeflu64ueja1o2v4hpf07bvnn97.apps.googleusercontent.com",
          "client_type": 1,
          "android_info": {
            "package_name": "com.example.robbe.commonpurse",
            "certificate_hash": "664f8c359e447badc2fea33329de68efe42420c3"
          }
        },
        {
          "client_id": "711292607581-n2s54eu99nr2tdcdvgubndk0apa8fgh6.apps.googleusercontent.com",
          "client_type": 3
        }
      ],
      "api_key": [
        {
          "current_key": "AIzaSyCqK5DFMtg8F1KX4xrXt3mpwOciE5xEEbw"
        }
      ],
      "services": {
        "analytics_service": {
          "status": 1
        },
        "appinvite_service": {
          "status": 2,
          "other_platform_oauth_client": [
            {
              "client_id": "711292607581-n2s54eu99nr2tdcdvgubndk0apa8fgh6.apps.googleusercontent.com",
              "client_type": 3
            }
          ]
        },
        "ads_service": {
          "status": 2
        }
      }
    }
  ],
  "configuration_version": "1"
}